{
  "name": "Luminet-Serial-Connector",
  "devices": [
    {
      "name": "FNILK2006260007",
      "type": "SmartPoint",
      "port": "/dev/ttyAMA4",
      "baudrate": 115200,
      "converter": "LuminetSerialConverter",
      "telemetryAndAttrDelimiter": "-",
      "telemetryDelimiter": "#",
      "attrDelimiter": "#",
      "localName": "007",
      "telemetry": [
        {
          "type": "string",
          "key": "LC",
          "index": 1
        },
        {
          "type": "string",
          "key": "LV",
          "index": 2
        },
        {
          "type": "string",
          "key": "BC",
          "index": 3
        },
        {
          "type": "string",
          "key": "BV",
          "index": 4
        },
        {
          "type": "string",
          "key": "SC",
          "index": 5
        },
        {
          "type": "string",
          "key": "SV",
          "index": 6
        },
        {
          "type": "string",
          "key": "PLI",
          "index": 7
        },
        {
          "type": "string",
          "key": "PL",
          "index": 8
        },
        {
          "type": "string",
          "key": "PBI",
          "index": 9
        },
        {
          "type": "string",
          "key": "PB",
          "index": 10
        },
        {
          "type": "string",
          "key": "PSI",
          "index": 11
        },
        {
          "type": "string",
          "key": "PS",
          "index": 12
        },
        {
          "type": "string",
          "key": "DMR",
          "isAttribute": true,
          "index": 13
        },
        {
          "type": "float",
          "key": "TMP",
          "index": 14
        },
        {
          "type": "string",
          "key": "CR2",
          "isAttribute": true,
          "index": 15
        },
        {
          "type": "string",
          "key": "CR3",
          "isAttribute": true,
          "index": 16
        },
        {
          "type": "string",
          "key": "LD1",
          "isAttribute": true,
          "index": 17
        },
        {
          "type": "string",
          "key": "LD2",
          "isAttribute": true,
          "index": 18
        },
        {
          "type": "string",
          "key": "LD3",
          "isAttribute": true,
          "index": 19
        },
        {
          "type": "string",
          "key": "PWM",
          "isDynamic": true,
          "index": 20
        },
        {
          "type": "string",
          "key": "STN",
          "index": 21
        },
        {
          "type": "string",
          "key": "BTL",
          "index": 22
        },
        {
          "type": "string",
          "key": "BTU",
          "index": 23
        },
        {
          "type": "string",
          "key": "UVL0",
          "index": 24
        },
        {
          "type": "string",
          "key": "ONF",
          "isAttribute": true,
          "index": 25
        },
        {
          "type": "string",
          "key": "DN",
          "isAttribute": true,
          "index": 26
        },
        {
          "type": "string",
          "key": "ST1",
          "isAttribute": true,
          "index": 27
        },
        {
          "type": "string",
          "key": "ST2",
          "isAttribute": true,
          "index": 28
        },
        {
          "type": "string",
          "key": "ST3",
          "isAttribute": true,
          "index": 29
        },
        {
          "type": "string",
          "key": "UA1",
          "isAttribute": true,
          "index": 30
        },
        {
          "type": "string",
          "key": "CS",
          "isCheckSum": true,
          "index": 31
        },
        {
          "type": "string",
          "key": "SNR1",
          "isDynamic": true,
          "index": 32
        }
      ],
      "attributes": [
        {
          "key": "FNILK2006260007",
          "type": "string",
          "index": 0
        }
      ],
      "attributeUpdates": [
        {
          "name": "LEDCONTROL1",
          "stringToDevice": "${LEDCONTROL1}"
        },
        {
          "name": "LEDCONTROL2",
          "stringToDevice": "${LEDCONTROL2}"
        },
        {
          "name": "TIM_7",
          "key": "V3",
          "stringToDevice": "V3${TIM_7}"
        },
        {
          "name": "TIM_8",
          "key": "V4",
          "stringToDevice": "V4${TIM_8}"
        },
        {
          "name": "DIM_7",
          "key": "V6",
          "stringToDevice": "V6${DIM_7}"
        },
        {
          "name": "DIM_8",
          "key": "V7",
          "stringToDevice": "V7${DIM_8}"
        },
        {
          "name": "DIM_9",
          "key": "V8",
          "stringToDevice": "V8${DIM_9}"
        },
        {
          "name": "BATDOWN",
          "key": "V10",
          "stringToDevice": "V10${BATDOWN}"
        },
        {
          "name": "BATUP",
          "key": "V11",
          "stringToDevice": "V11${BATUP}"
        },
        {
          "name": "UVL0",
          "key": "V12",
          "stringToDevice": "V12${UVL0}"
        },
        {
          "name": "VAL1",
          "key": "V13",
          "stringToDevice": "V13${VAL1}"
        },
        {
          "name": "VAL2",
          "key": "V14",
          "stringToDevice": "V14${VAL2}"
        },
        {
          "name": "VAL3",
          "key": "V15",
          "stringToDevice": "V15${VAL3}"
        },
        {
          "name": "VAL4",
          "key": "V16",
          "stringToDevice": "V16${VAL4}"
        },
        {
          "name": "VAL5",
          "key": "V17",
          "stringToDevice": "V17${VAL5}"
        },
        {
          "name": "V18",
          "key": "V18",
          "stringToDevice": "V18${V18}"
        },
        {
          "name": "V19",
          "key": "V19",
          "stringToDevice": "V19${V19}"
        }
      ],
      "capabilities": []
    },
    {
      "name": "FNILK2006260008",
      "type": "SmartPoint",
      "port": "/dev/ttyAMA4",
      "baudrate": 115200,
      "converter": "LuminetSerialConverter",
      "telemetryAndAttrDelimiter": "-",
      "telemetryDelimiter": "#",
      "attrDelimiter": "#",
      "localName": "008",
      "telemetry": [
        {
          "type": "string",
          "key": "LC",
          "index": 1
        },
        {
          "type": "string",
          "key": "LV",
          "index": 2
        },
        {
          "type": "string",
          "key": "BC",
          "index": 3
        },
        {
          "type": "string",
          "key": "BV",
          "index": 4
        },
        {
          "type": "string",
          "key": "SC",
          "index": 5
        },
        {
          "type": "string",
          "key": "SV",
          "index": 6
        },
        {
          "type": "string",
          "key": "PLI",
          "index": 7
        },
        {
          "type": "string",
          "key": "PL",
          "index": 8
        },
        {
          "type": "string",
          "key": "PBI",
          "index": 9
        },
        {
          "type": "string",
          "key": "PB",
          "index": 10
        },
        {
          "type": "string",
          "key": "PSI",
          "index": 11
        },
        {
          "type": "string",
          "key": "PS",
          "index": 12
        },
        {
          "type": "string",
          "key": "DMR",
          "isAttribute": true,
          "index": 13
        },
        {
          "type": "float",
          "key": "TMP",
          "index": 14
        },
        {
          "type": "string",
          "key": "CR2",
          "isAttribute": true,
          "index": 15
        },
        {
          "type": "string",
          "key": "CR3",
          "isAttribute": true,
          "index": 16
        },
        {
          "type": "string",
          "key": "LD1",
          "isAttribute": true,
          "index": 17
        },
        {
          "type": "string",
          "key": "LD2",
          "isAttribute": true,
          "index": 18
        },
        {
          "type": "string",
          "key": "LD3",
          "isAttribute": true,
          "index": 19
        },
        {
          "type": "string",
          "key": "PWM",
          "isDynamic": true,
          "index": 20
        },
        {
          "type": "string",
          "key": "STN",
          "index": 21
        },
        {
          "type": "string",
          "key": "BTL",
          "index": 22
        },
        {
          "type": "string",
          "key": "BTU",
          "index": 23
        },
        {
          "type": "string",
          "key": "UVL0",
          "index": 24
        },
        {
          "type": "string",
          "key": "ONF",
          "isAttribute": true,
          "index": 25
        },
        {
          "type": "string",
          "key": "DN",
          "isAttribute": true,
          "index": 26
        },
        {
          "type": "string",
          "key": "ST1",
          "isAttribute": true,
          "index": 27
        },
        {
          "type": "string",
          "key": "ST2",
          "isAttribute": true,
          "index": 28
        },
        {
          "type": "string",
          "key": "ST3",
          "isAttribute": true,
          "index": 29
        },
        {
          "type": "string",
          "key": "UA1",
          "isAttribute": true,
          "index": 30
        },
        {
          "type": "string",
          "key": "CS",
          "isCheckSum": true,
          "index": 31
        },
        {
          "type": "string",
          "key": "SNR1",
          "isDynamic": true,
          "index": 32
        }
      ],
      "attributes": [
        {
          "key": "FNILK2006240008",
          "type": "string",
          "index": 0
        }
      ],
      "attributeUpdates": [
        {
          "name": "LEDCONTROL1",
          "stringToDevice": "${LEDCONTROL1}"
        },
        {
          "name": "LEDCONTROL2",
          "stringToDevice": "${LEDCONTROL2}"
        },
        {
          "name": "TIM_7",
          "key": "V3",
          "stringToDevice": "V3${TIM_7}"
        },
        {
          "name": "TIM_8",
          "key": "V4",
          "stringToDevice": "V4${TIM_8}"
        },
        {
          "name": "DIM_7",
          "key": "V6",
          "stringToDevice": "V6${DIM_7}"
        },
        {
          "name": "DIM_8",
          "key": "V7",
          "stringToDevice": "V7${DIM_8}"
        },
        {
          "name": "DIM_9",
          "key": "V8",
          "stringToDevice": "V8${DIM_9}"
        },
        {
          "name": "BATDOWN",
          "key": "V10",
          "stringToDevice": "V10${BATDOWN}"
        },
        {
          "name": "BATUP",
          "key": "V11",
          "stringToDevice": "V11${BATUP}"
        },
        {
          "name": "UVL0",
          "key": "V12",
          "stringToDevice": "V12${UVL0}"
        },
        {
          "name": "VAL1",
          "key": "V13",
          "stringToDevice": "V13${VAL1}"
        },
        {
          "name": "VAL2",
          "key": "V14",
          "stringToDevice": "V14${VAL2}"
        },
        {
          "name": "VAL3",
          "key": "V15",
          "stringToDevice": "V15${VAL3}"
        },
        {
          "name": "VAL4",
          "key": "V16",
          "stringToDevice": "V16${VAL4}"
        },
        {
          "name": "VAL5",
          "key": "V17",
          "stringToDevice": "V17${VAL5}"
        },
        {
          "name": "V18",
          "key": "V18",
          "stringToDevice": "V18${V18}"
        },
        {
          "name": "V19",
          "key": "V19",
          "stringToDevice": "V19${V19}"
        }
      ],
      "capabilities": []
    },
    {
      "name": "FNILK2006260009",
      "type": "SmartPoint",
      "port": "/dev/ttyAMA4",
      "baudrate": 115200,
      "converter": "LuminetSerialConverter",
      "telemetryAndAttrDelimiter": "-",
      "telemetryDelimiter": "#",
      "attrDelimiter": "#",
      "localName": "009",
      "telemetry": [
        {
          "type": "string",
          "key": "LC",
          "index": 1
        },
        {
          "type": "string",
          "key": "LV",
          "index": 2
        },
        {
          "type": "string",
          "key": "BC",
          "index": 3
        },
        {
          "type": "string",
          "key": "BV",
          "index": 4
        },
        {
          "type": "string",
          "key": "SC",
          "index": 5
        },
        {
          "type": "string",
          "key": "SV",
          "index": 6
        },
        {
          "type": "string",
          "key": "PLI",
          "index": 7
        },
        {
          "type": "string",
          "key": "PL",
          "index": 8
        },
        {
          "type": "string",
          "key": "PBI",
          "index": 9
        },
        {
          "type": "string",
          "key": "PB",
          "index": 10
        },
        {
          "type": "string",
          "key": "PSI",
          "index": 11
        },
        {
          "type": "string",
          "key": "PS",
          "index": 12
        },
        {
          "type": "string",
          "key": "DMR",
          "isAttribute": true,
          "index": 13
        },
        {
          "type": "float",
          "key": "TMP",
          "index": 14
        },
        {
          "type": "string",
          "key": "CR2",
          "isAttribute": true,
          "index": 15
        },
        {
          "type": "string",
          "key": "CR3",
          "isAttribute": true,
          "index": 16
        },
        {
          "type": "string",
          "key": "LD1",
          "isAttribute": true,
          "index": 17
        },
        {
          "type": "string",
          "key": "LD2",
          "isAttribute": true,
          "index": 18
        },
        {
          "type": "string",
          "key": "LD3",
          "isAttribute": true,
          "index": 19
        },
        {
          "type": "string",
          "key": "PWM",
          "isDynamic": true,
          "index": 20
        },
        {
          "type": "string",
          "key": "STN",
          "index": 21
        },
        {
          "type": "string",
          "key": "BTL",
          "index": 22
        },
        {
          "type": "string",
          "key": "BTU",
          "index": 23
        },
        {
          "type": "string",
          "key": "UVL0",
          "index": 24
        },
        {
          "type": "string",
          "key": "ONF",
          "isAttribute": true,
          "index": 25
        },
        {
          "type": "string",
          "key": "DN",
          "isAttribute": true,
          "index": 26
        },
        {
          "type": "string",
          "key": "ST1",
          "isAttribute": true,
          "index": 27
        },
        {
          "type": "string",
          "key": "ST2",
          "isAttribute": true,
          "index": 28
        },
        {
          "type": "string",
          "key": "ST3",
          "isAttribute": true,
          "index": 29
        },
        {
          "type": "string",
          "key": "UA1",
          "isAttribute": true,
          "index": 30
        },
        {
          "type": "string",
          "key": "CS",
          "isCheckSum": true,
          "index": 31
        },
        {
          "type": "string",
          "key": "SNR1",
          "isDynamic": true,
          "index": 32
        }
      ],
      "attributes": [
        {
          "key": "FNILK2006240009",
          "type": "string",
          "index": 0
        }
      ],
      "attributeUpdates": [
        {
          "name": "LEDCONTROL1",
          "stringToDevice": "${LEDCONTROL1}"
        },
        {
          "name": "LEDCONTROL2",
          "stringToDevice": "${LEDCONTROL2}"
        },
        {
          "name": "TIM_7",
          "key": "V3",
          "stringToDevice": "V3${TIM_7}"
        },
        {
          "name": "TIM_8",
          "key": "V4",
          "stringToDevice": "V4${TIM_8}"
        },
        {
          "name": "DIM_7",
          "key": "V6",
          "stringToDevice": "V6${DIM_7}"
        },
        {
          "name": "DIM_8",
          "key": "V7",
          "stringToDevice": "V7${DIM_8}"
        },
        {
          "name": "DIM_9",
          "key": "V8",
          "stringToDevice": "V8${DIM_9}"
        },
        {
          "name": "BATDOWN",
          "key": "V10",
          "stringToDevice": "V10${BATDOWN}"
        },
        {
          "name": "BATUP",
          "key": "V11",
          "stringToDevice": "V11${BATUP}"
        },
        {
          "name": "UVL0",
          "key": "V12",
          "stringToDevice": "V12${UVL0}"
        },
        {
          "name": "VAL1",
          "key": "V13",
          "stringToDevice": "V13${VAL1}"
        },
        {
          "name": "VAL2",
          "key": "V14",
          "stringToDevice": "V14${VAL2}"
        },
        {
          "name": "VAL3",
          "key": "V15",
          "stringToDevice": "V15${VAL3}"
        },
        {
          "name": "VAL4",
          "key": "V16",
          "stringToDevice": "V16${VAL4}"
        },
        {
          "name": "VAL5",
          "key": "V17",
          "stringToDevice": "V17${VAL5}"
        },
        {
          "name": "V18",
          "key": "V18",
          "stringToDevice": "V18${V18}"
        },
        {
          "name": "V19",
          "key": "V19",
          "stringToDevice": "V19${V19}"
        }
      ],
      "capabilities": []
    },
    {
      "name": "FNILK2006260010",
      "type": "SmartPoint",
      "port": "/dev/ttyAMA4",
      "baudrate": 115200,
      "converter": "LuminetSerialConverter",
      "telemetryAndAttrDelimiter": "-",
      "telemetryDelimiter": "#",
      "attrDelimiter": "#",
      "localName": "010",
      "telemetry": [
        {
          "type": "string",
          "key": "LC",
          "index": 1
        },
        {
          "type": "string",
          "key": "LV",
          "index": 2
        },
        {
          "type": "string",
          "key": "BC",
          "index": 3
        },
        {
          "type": "string",
          "key": "BV",
          "index": 4
        },
        {
          "type": "string",
          "key": "SC",
          "index": 5
        },
        {
          "type": "string",
          "key": "SV",
          "index": 6
        },
        {
          "type": "string",
          "key": "PLI",
          "index": 7
        },
        {
          "type": "string",
          "key": "PL",
          "index": 8
        },
        {
          "type": "string",
          "key": "PBI",
          "index": 9
        },
        {
          "type": "string",
          "key": "PB",
          "index": 10
        },
        {
          "type": "string",
          "key": "PSI",
          "index": 11
        },
        {
          "type": "string",
          "key": "PS",
          "index": 12
        },
        {
          "type": "string",
          "key": "DMR",
          "isAttribute": true,
          "index": 13
        },
        {
          "type": "float",
          "key": "TMP",
          "index": 14
        },
        {
          "type": "string",
          "key": "CR2",
          "isAttribute": true,
          "index": 15
        },
        {
          "type": "string",
          "key": "CR3",
          "isAttribute": true,
          "index": 16
        },
        {
          "type": "string",
          "key": "LD1",
          "isAttribute": true,
          "index": 17
        },
        {
          "type": "string",
          "key": "LD2",
          "isAttribute": true,
          "index": 18
        },
        {
          "type": "string",
          "key": "LD3",
          "isAttribute": true,
          "index": 19
        },
        {
          "type": "string",
          "key": "PWM",
          "isDynamic": true,
          "index": 20
        },
        {
          "type": "string",
          "key": "STN",
          "index": 21
        },
        {
          "type": "string",
          "key": "BTL",
          "index": 22
        },
        {
          "type": "string",
          "key": "BTU",
          "index": 23
        },
        {
          "type": "string",
          "key": "UVL0",
          "index": 24
        },
        {
          "type": "string",
          "key": "ONF",
          "isAttribute": true,
          "index": 25
        },
        {
          "type": "string",
          "key": "DN",
          "isAttribute": true,
          "index": 26
        },
        {
          "type": "string",
          "key": "ST1",
          "isAttribute": true,
          "index": 27
        },
        {
          "type": "string",
          "key": "ST2",
          "isAttribute": true,
          "index": 28
        },
        {
          "type": "string",
          "key": "ST3",
          "isAttribute": true,
          "index": 29
        },
        {
          "type": "string",
          "key": "UA1",
          "isAttribute": true,
          "index": 30
        },
        {
          "type": "string",
          "key": "CS",
          "isCheckSum": true,
          "index": 31
        },
        {
          "type": "string",
          "key": "SNR1",
          "isDynamic": true,
          "index": 32
        }
      ],
      "attributes": [
        {
          "key": "FNILK2006240010",
          "type": "string",
          "index": 0
        }
      ],
      "attributeUpdates": [
        {
          "name": "LEDCONTROL1",
          "stringToDevice": "${LEDCONTROL1}"
        },
        {
          "name": "LEDCONTROL2",
          "stringToDevice": "${LEDCONTROL2}"
        },
        {
          "name": "TIM_7",
          "key": "V3",
          "stringToDevice": "V3${TIM_7}"
        },
        {
          "name": "TIM_8",
          "key": "V4",
          "stringToDevice": "V4${TIM_8}"
        },
        {
          "name": "DIM_7",
          "key": "V6",
          "stringToDevice": "V6${DIM_7}"
        },
        {
          "name": "DIM_8",
          "key": "V7",
          "stringToDevice": "V7${DIM_8}"
        },
        {
          "name": "DIM_9",
          "key": "V8",
          "stringToDevice": "V8${DIM_9}"
        },
        {
          "name": "BATDOWN",
          "key": "V10",
          "stringToDevice": "V10${BATDOWN}"
        },
        {
          "name": "BATUP",
          "key": "V11",
          "stringToDevice": "V11${BATUP}"
        },
        {
          "name": "UVL0",
          "key": "V12",
          "stringToDevice": "V12${UVL0}"
        },
        {
          "name": "VAL1",
          "key": "V13",
          "stringToDevice": "V13${VAL1}"
        },
        {
          "name": "VAL2",
          "key": "V14",
          "stringToDevice": "V14${VAL2}"
        },
        {
          "name": "VAL3",
          "key": "V15",
          "stringToDevice": "V15${VAL3}"
        },
        {
          "name": "VAL4",
          "key": "V16",
          "stringToDevice": "V16${VAL4}"
        },
        {
          "name": "TIMERCONTROL",
          "key": "CTRL",
          "stringToDevice": "CTRL${TIMERCONTROL}"
        },
        {
          "name": "VAL5",
          "key": "V17",
          "stringToDevice": "V17${VAL5}"
        },
        {
          "name": "V18",
          "key": "V18",
          "stringToDevice": "V18${V18}"
        },
        {
          "name": "V19",
          "key": "V19",
          "stringToDevice": "V19${V19}"
        }
      ],
      "capabilities": []
    },
    {
      "name": "FNILK2006260011",
      "type": "SmartPoint",
      "port": "/dev/ttyAMA4",
      "baudrate": 115200,
      "converter": "LuminetSerialConverter",
      "telemetryAndAttrDelimiter": "-",
      "telemetryDelimiter": "#",
      "attrDelimiter": "#",
      "localName": "011",
      "telemetry": [
        {
          "type": "string",
          "key": "LC",
          "index": 1
        },
        {
          "type": "string",
          "key": "LV",
          "index": 2
        },
        {
          "type": "string",
          "key": "BC",
          "index": 3
        },
        {
          "type": "string",
          "key": "BV",
          "index": 4
        },
        {
          "type": "string",
          "key": "SC",
          "index": 5
        },
        {
          "type": "string",
          "key": "SV",
          "index": 6
        },
        {
          "type": "string",
          "key": "PLI",
          "index": 7
        },
        {
          "type": "string",
          "key": "PL",
          "index": 8
        },
        {
          "type": "string",
          "key": "PBI",
          "index": 9
        },
        {
          "type": "string",
          "key": "PB",
          "index": 10
        },
        {
          "type": "string",
          "key": "PSI",
          "index": 11
        },
        {
          "type": "string",
          "key": "PS",
          "index": 12
        },
        {
          "type": "string",
          "key": "DMR",
          "isAttribute": true,
          "index": 13
        },
        {
          "type": "float",
          "key": "TMP",
          "index": 14
        },
        {
          "type": "string",
          "key": "CR2",
          "isAttribute": true,
          "index": 15
        },
        {
          "type": "string",
          "key": "CR3",
          "isAttribute": true,
          "index": 16
        },
        {
          "type": "string",
          "key": "LD1",
          "isAttribute": true,
          "index": 17
        },
        {
          "type": "string",
          "key": "LD2",
          "isAttribute": true,
          "index": 18
        },
        {
          "type": "string",
          "key": "LD3",
          "isAttribute": true,
          "index": 19
        },
        {
          "type": "string",
          "key": "PWM",
          "isDynamic": true,
          "index": 20
        },
        {
          "type": "string",
          "key": "STN",
          "index": 21
        },
        {
          "type": "string",
          "key": "BTL",
          "index": 22
        },
        {
          "type": "string",
          "key": "BTU",
          "index": 23
        },
        {
          "type": "string",
          "key": "UVL0",
          "index": 24
        },
        {
          "type": "string",
          "key": "ONF",
          "isAttribute": true,
          "index": 25
        },
        {
          "type": "string",
          "key": "DN",
          "isAttribute": true,
          "index": 26
        },
        {
          "type": "string",
          "key": "ST1",
          "isAttribute": true,
          "index": 27
        },
        {
          "type": "string",
          "key": "ST2",
          "isAttribute": true,
          "index": 28
        },
        {
          "type": "string",
          "key": "ST3",
          "isAttribute": true,
          "index": 29
        },
        {
          "type": "string",
          "key": "UA1",
          "isAttribute": true,
          "index": 30
        },
        {
          "type": "string",
          "key": "CS",
          "isCheckSum": true,
          "index": 31
        },
        {
          "type": "string",
          "key": "SNR1",
          "isDynamic": true,
          "index": 32
        }
      ],
      "attributes": [
        {
          "key": "FNILK2006240011",
          "type": "string",
          "index": 0
        }
      ],
      "attributeUpdates": [
        {
          "name": "LEDCONTROL1",
          "stringToDevice": "${LEDCONTROL1}"
        },
        {
          "name": "LEDCONTROL2",
          "stringToDevice": "${LEDCONTROL2}"
        },
        {
          "name": "TIM_7",
          "key": "V3",
          "stringToDevice": "V3${TIM_7}"
        },
        {
          "name": "TIM_8",
          "key": "V4",
          "stringToDevice": "V4${TIM_8}"
        },
        {
          "name": "DIM_7",
          "key": "V6",
          "stringToDevice": "V6${DIM_7}"
        },
        {
          "name": "DIM_8",
          "key": "V7",
          "stringToDevice": "V7${DIM_8}"
        },
        {
          "name": "DIM_9",
          "key": "V8",
          "stringToDevice": "V8${DIM_9}"
        },
        {
          "name": "BATDOWN",
          "key": "V10",
          "stringToDevice": "V10${BATDOWN}"
        },
        {
          "name": "BATUP",
          "key": "V11",
          "stringToDevice": "V11${BATUP}"
        },
        {
          "name": "UVL0",
          "key": "V12",
          "stringToDevice": "V12${UVL0}"
        },
        {
          "name": "VAL1",
          "key": "V13",
          "stringToDevice": "V13${VAL1}"
        },
        {
          "name": "VAL2",
          "key": "V14",
          "stringToDevice": "V14${VAL2}"
        },
        {
          "name": "VAL3",
          "key": "V15",
          "stringToDevice": "V15${VAL3}"
        },
        {
          "name": "VAL4",
          "key": "V16",
          "stringToDevice": "V16${VAL4}"
        },
        {
          "name": "VAL5",
          "key": "V17",
          "stringToDevice": "V17${VAL5}"
        },
        {
          "name": "V18",
          "key": "V18",
          "stringToDevice": "V18${V18}"
        },
        {
          "name": "V19",
          "key": "V19",
          "stringToDevice": "V19${V19}"
        }
      ],
      "capabilities": []
    },
    {
      "name": "FNILK2006260012",
      "type": "SmartPoint",
      "port": "/dev/ttyAMA4",
      "baudrate": 115200,
      "converter": "LuminetSerialConverter",
      "telemetryAndAttrDelimiter": "-",
      "telemetryDelimiter": "#",
      "attrDelimiter": "#",
      "localName": "012",
      "telemetry": [
        {
          "type": "string",
          "key": "LC",
          "index": 1
        },
        {
          "type": "string",
          "key": "LV",
          "index": 2
        },
        {
          "type": "string",
          "key": "BC",
          "index": 3
        },
        {
          "type": "string",
          "key": "BV",
          "index": 4
        },
        {
          "type": "string",
          "key": "SC",
          "index": 5
        },
        {
          "type": "string",
          "key": "SV",
          "index": 6
        },
        {
          "type": "string",
          "key": "PLI",
          "index": 7
        },
        {
          "type": "string",
          "key": "PL",
          "index": 8
        },
        {
          "type": "string",
          "key": "PBI",
          "index": 9
        },
        {
          "type": "string",
          "key": "PB",
          "index": 10
        },
        {
          "type": "string",
          "key": "PSI",
          "index": 11
        },
        {
          "type": "string",
          "key": "PS",
          "index": 12
        },
        {
          "type": "string",
          "key": "DMR",
          "isAttribute": true,
          "index": 13
        },
        {
          "type": "float",
          "key": "TMP",
          "index": 14
        },
        {
          "type": "string",
          "key": "CR2",
          "isAttribute": true,
          "index": 15
        },
        {
          "type": "string",
          "key": "CR3",
          "isAttribute": true,
          "index": 16
        },
        {
          "type": "string",
          "key": "LD1",
          "isAttribute": true,
          "index": 17
        },
        {
          "type": "string",
          "key": "LD2",
          "isAttribute": true,
          "index": 18
        },
        {
          "type": "string",
          "key": "LD3",
          "isAttribute": true,
          "index": 19
        },
        {
          "type": "string",
          "key": "PWM",
          "isDynamic": true,
          "index": 20
        },
        {
          "type": "string",
          "key": "STN",
          "index": 21
        },
        {
          "type": "string",
          "key": "BTL",
          "index": 22
        },
        {
          "type": "string",
          "key": "BTU",
          "index": 23
        },
        {
          "type": "string",
          "key": "UVL0",
          "index": 24
        },
        {
          "type": "string",
          "key": "ONF",
          "isAttribute": true,
          "index": 25
        },
        {
          "type": "string",
          "key": "DN",
          "isAttribute": true,
          "index": 26
        },
        {
          "type": "string",
          "key": "ST1",
          "isAttribute": true,
          "index": 27
        },
        {
          "type": "string",
          "key": "ST2",
          "isAttribute": true,
          "index": 28
        },
        {
          "type": "string",
          "key": "ST3",
          "isAttribute": true,
          "index": 29
        },
        {
          "type": "string",
          "key": "UA1",
          "isAttribute": true,
          "index": 30
        },
        {
          "type": "string",
          "key": "CS",
          "isCheckSum": true,
          "index": 31
        },
        {
          "type": "string",
          "key": "SNR1",
          "isDynamic": true,
          "index": 32
        }
      ],
      "attributes": [
        {
          "key": "FNILK2006240012",
          "type": "string",
          "index": 0
        }
      ],
      "attributeUpdates": [
        {
          "name": "LEDCONTROL1",
          "stringToDevice": "${LEDCONTROL1}"
        },
        {
          "name": "LEDCONTROL2",
          "stringToDevice": "${LEDCONTROL2}"
        },
        {
          "name": "TIM_7",
          "key": "V3",
          "stringToDevice": "V3${TIM_7}"
        },
        {
          "name": "TIM_8",
          "key": "V4",
          "stringToDevice": "V4${TIM_8}"
        },
        {
          "name": "DIM_7",
          "key": "V6",
          "stringToDevice": "V6${DIM_7}"
        },
        {
          "name": "DIM_8",
          "key": "V7",
          "stringToDevice": "V7${DIM_8}"
        },
        {
          "name": "DIM_9",
          "key": "V8",
          "stringToDevice": "V8${DIM_9}"
        },
        {
          "name": "BATDOWN",
          "key": "V10",
          "stringToDevice": "V10${BATDOWN}"
        },
        {
          "name": "BATUP",
          "key": "V11",
          "stringToDevice": "V11${BATUP}"
        },
        {
          "name": "UVL0",
          "key": "V12",
          "stringToDevice": "V12${UVL0}"
        },
        {
          "name": "VAL1",
          "key": "V13",
          "stringToDevice": "V13${VAL1}"
        },
        {
          "name": "VAL2",
          "key": "V14",
          "stringToDevice": "V14${VAL2}"
        },
        {
          "name": "VAL3",
          "key": "V15",
          "stringToDevice": "V15${VAL3}"
        },
        {
          "name": "VAL4",
          "key": "V16",
          "stringToDevice": "V16${VAL4}"
        },
        {
          "name": "VAL5",
          "key": "V17",
          "stringToDevice": "V17${VAL5}"
        },
        {
          "name": "V18",
          "key": "V18",
          "stringToDevice": "V18${V18}"
        },
        {
          "name": "V19",
          "key": "V19",
          "stringToDevice": "V19${V19}"
        }
      ],
      "capabilities": []
    },
    {
      "name": "FNILK2006260013",
      "type": "SmartPoint",
      "port": "/dev/ttyAMA4",
      "baudrate": 115200,
      "converter": "LuminetSerialConverter",
      "telemetryAndAttrDelimiter": "-",
      "telemetryDelimiter": "#",
      "attrDelimiter": "#",
      "localName": "013",
      "telemetry": [
        {
          "type": "string",
          "key": "LC",
          "index": 1
        },
        {
          "type": "string",
          "key": "LV",
          "index": 2
        },
        {
          "type": "string",
          "key": "BC",
          "index": 3
        },
        {
          "type": "string",
          "key": "BV",
          "index": 4
        },
        {
          "type": "string",
          "key": "SC",
          "index": 5
        },
        {
          "type": "string",
          "key": "SV",
          "index": 6
        },
        {
          "type": "string",
          "key": "PLI",
          "index": 7
        },
        {
          "type": "string",
          "key": "PL",
          "index": 8
        },
        {
          "type": "string",
          "key": "PBI",
          "index": 9
        },
        {
          "type": "string",
          "key": "PB",
          "index": 10
        },
        {
          "type": "string",
          "key": "PSI",
          "index": 11
        },
        {
          "type": "string",
          "key": "PS",
          "index": 12
        },
        {
          "type": "string",
          "key": "DMR",
          "isAttribute": true,
          "index": 13
        },
        {
          "type": "float",
          "key": "TMP",
          "index": 14
        },
        {
          "type": "string",
          "key": "CR2",
          "isAttribute": true,
          "index": 15
        },
        {
          "type": "string",
          "key": "CR3",
          "isAttribute": true,
          "index": 16
        },
        {
          "type": "string",
          "key": "LD1",
          "isAttribute": true,
          "index": 17
        },
        {
          "type": "string",
          "key": "LD2",
          "isAttribute": true,
          "index": 18
        },
        {
          "type": "string",
          "key": "LD3",
          "isAttribute": true,
          "index": 19
        },
        {
          "type": "string",
          "key": "PWM",
          "isDynamic": true,
          "index": 20
        },
        {
          "type": "string",
          "key": "STN",
          "index": 21
        },
        {
          "type": "string",
          "key": "BTL",
          "index": 22
        },
        {
          "type": "string",
          "key": "BTU",
          "index": 23
        },
        {
          "type": "string",
          "key": "UVL0",
          "index": 24
        },
        {
          "type": "string",
          "key": "ONF",
          "isAttribute": true,
          "index": 25
        },
        {
          "type": "string",
          "key": "DN",
          "isAttribute": true,
          "index": 26
        },
        {
          "type": "string",
          "key": "ST1",
          "isAttribute": true,
          "index": 27
        },
        {
          "type": "string",
          "key": "ST2",
          "isAttribute": true,
          "index": 28
        },
        {
          "type": "string",
          "key": "ST3",
          "isAttribute": true,
          "index": 29
        },
        {
          "type": "string",
          "key": "UA1",
          "isAttribute": true,
          "index": 30
        },
        {
          "type": "string",
          "key": "CS",
          "isCheckSum": true,
          "index": 31
        },
        {
          "type": "string",
          "key": "SNR1",
          "isDynamic": true,
          "index": 32
        }
      ],
      "attributes": [
        {
          "key": "FNILK2006240013",
          "type": "string",
          "index": 0
        }
      ],
      "attributeUpdates": [
        {
          "name": "LEDCONTROL1",
          "stringToDevice": "${LEDCONTROL1}"
        },
        {
          "name": "LEDCONTROL2",
          "stringToDevice": "${LEDCONTROL2}"
        },
        {
          "name": "TIM_7",
          "key": "V3",
          "stringToDevice": "V3${TIM_7}"
        },
        {
          "name": "TIM_8",
          "key": "V4",
          "stringToDevice": "V4${TIM_8}"
        },
        {
          "name": "DIM_7",
          "key": "V6",
          "stringToDevice": "V6${DIM_7}"
        },
        {
          "name": "DIM_8",
          "key": "V7",
          "stringToDevice": "V7${DIM_8}"
        },
        {
          "name": "DIM_9",
          "key": "V8",
          "stringToDevice": "V8${DIM_9}"
        },
        {
          "name": "BATDOWN",
          "key": "V10",
          "stringToDevice": "V10${BATDOWN}"
        },
        {
          "name": "BATUP",
          "key": "V11",
          "stringToDevice": "V11${BATUP}"
        },
        {
          "name": "UVL0",
          "key": "V12",
          "stringToDevice": "V12${UVL0}"
        },
        {
          "name": "VAL1",
          "key": "V13",
          "stringToDevice": "V13${VAL1}"
        },
        {
          "name": "VAL2",
          "key": "V14",
          "stringToDevice": "V14${VAL2}"
        },
        {
          "name": "VAL3",
          "key": "V15",
          "stringToDevice": "V15${VAL3}"
        },
        {
          "name": "VAL4",
          "key": "V16",
          "stringToDevice": "V16${VAL4}"
        },
        {
          "name": "VAL5",
          "key": "V17",
          "stringToDevice": "V17${VAL5}"
        },
        {
          "name": "V18",
          "key": "V18",
          "stringToDevice": "V18${V18}"
        },
        {
          "name": "V19",
          "key": "V19",
          "stringToDevice": "V19${V19}"
        }
      ],
      "capabilities": []
    }
  ]
}