{
    "name": "Gateway-Connector",
    "devices": [
      {
        "name": "NDULNIST01GW1",
        "type": "Gateway Data",
        "converter": "GatewayConverter",
        "telemetryAndAttrDelimiter": "-",
        "telemetry": [
          {
            "type": "float",
            "key": "CPU TEMP",
            "index": 1
          },
          {
            "type": "float",
            "key": "CPU CLOCK",
            "index": 2
          },
          {
            "type": "float",
            "key": "GPU CLOCK",
            "index": 3
          },
          {
            "type": "float",
            "key": "NETWORK LATENCY",
            "index": 4
          },
          {
            "type": "int",
            "key": "MEMORY USAGE",
            "index": 5
          },
          {
            "type": "int",
            "key": "DISK USAGE",
            "index": 6
          },
          {
            "type": "float",
            "key": "AMBIENT TEMP",
            "index": 7
          },
          {
            "type": "float",
            "key": "LATITUDE",
            "index": 8
          },
          {
            "type": "float",
            "key": "LONGITUDE",
            "index": 9
          },
          {
            "type": "string",
            "key": "SOLAR NOON",
            "index": 10
          },
          {
            "type": "string",
            "key": "SUNSET",
            "index": 11
          },
          {
            "type": "string",
            "key": "SUNRISE",
            "index": 12
          }
        ],
        "attributes": [
          {
            "key": "NDULNIST01GW1",
            "type": "string",
            "index": 0
          }
        ],
        "attributeUpdates": [
          {
            "name": "CPUCLOCK",
            "stringToDevice": "${CPUCLOCK}"
          },
          {
            "name": "DEFAULTSUNSET",
            "stringToDevice": "${DEFAULTSUNSET}"
          },
          {
            "name": "DEFAULTSUNRISE",
            "stringToDevice": "${DEFAULTSUNRISE}"
          },
          {
            "name": "EQUA",
            "stringToDevice": "${EQUA}"
          },
          {
            "name": "EQUB",
            "stringToDevice": "${EQUB}"
          },
          {
            "name": "EQUC",
            "stringToDevice": "${EQUC}"
          },
          {
            "name": "EQUD",
            "stringToDevice": "${EQUD}"
          },
          {
            "name": "EQUE",
            "stringToDevice": "${EQUE}"
          },
          {
            "name": "EQUF",
            "stringToDevice": "${EQUF}"
          },
          {
            "name": "EQUG",
            "stringToDevice": "${EQUG}"
          }
          
        ],
        "capabilities": []
      }
    ]
  }